===========================[ Pokédex ]==========================
            Welcome to the Pokédex!  How can I help?
================================================================
Enter command: Added bulbasaur to the Pokedex!
Enter command: Added ivysaur to the Pokedex!
Enter command: Added venusaur to the Pokedex!
Enter command: Added charmander to the Pokedex!
Enter command: Added charmeleon to the Pokedex!
Enter command: Added charizard to the Pokedex!
Enter command: Added squirtle to the Pokedex!
Enter command: Added wartortle to the Pokedex!
Enter command: Added blastoise to the Pokedex!
Enter command: Added caterpie to the Pokedex!
Enter command: Added metapod to the Pokedex!
Enter command: Added butterfree to the Pokedex!
Enter command: Added weedle to the Pokedex!
Enter command: Added kakuna to the Pokedex!
Enter command: Added beedrill to the Pokedex!
Enter command: Added pidgey to the Pokedex!
Enter command: Added pidgeotto to the Pokedex!
Enter command: Added pidgeot to the Pokedex!
Enter command: Added rattata to the Pokedex!
Enter command: Added raticate to the Pokedex!
Enter command: Added spearow to the Pokedex!
Enter command: Added fearow to the Pokedex!
Enter command: Added ekans to the Pokedex!
Enter command: Added arbok to the Pokedex!
Enter command: Added pikachu to the Pokedex!
Enter command: Added raichu to the Pokedex!
Enter command: Added sandshrew to the Pokedex!
Enter command: Added sandslash to the Pokedex!
Enter command: Added nidoran-f to the Pokedex!
Enter command: Added nidorina to the Pokedex!
Enter command: Added nidoqueen to the Pokedex!
Enter command: Added nidoran-m to the Pokedex!
Enter command: Added nidorino to the Pokedex!
Enter command: Added nidoking to the Pokedex!
Enter command: Added clefairy to the Pokedex!
Enter command: Added clefable to the Pokedex!
Enter command: Added vulpix to the Pokedex!
Enter command: Added ninetales to the Pokedex!
Enter command: Added jigglypuff to the Pokedex!
Enter command: Added wigglytuff to the Pokedex!
Enter command: Added zubat to the Pokedex!
Enter command: Added golbat to the Pokedex!
Enter command: Added oddish to the Pokedex!
Enter command: Added gloom to the Pokedex!
Enter command: Added vileplume to the Pokedex!
Enter command: Added paras to the Pokedex!
Enter command: Added parasect to the Pokedex!
Enter command: Added venonat to the Pokedex!
Enter command: Added venomoth to the Pokedex!
Enter command: Added diglett to the Pokedex!
Enter command: Added dugtrio to the Pokedex!
Enter command: Added meowth to the Pokedex!
Enter command: Added persian to the Pokedex!
Enter command: Added psyduck to the Pokedex!
Enter command: Added golduck to the Pokedex!
Enter command: Added mankey to the Pokedex!
Enter command: Added primeape to the Pokedex!
Enter command: Added growlithe to the Pokedex!
Enter command: Added arcanine to the Pokedex!
Enter command: Added poliwag to the Pokedex!
Enter command: Added poliwhirl to the Pokedex!
Enter command: Added poliwrath to the Pokedex!
Enter command: Added abra to the Pokedex!
Enter command: Added kadabra to the Pokedex!
Enter command: Added alakazam to the Pokedex!
Enter command: Added machop to the Pokedex!
Enter command: Added machoke to the Pokedex!
Enter command: Added machamp to the Pokedex!
Enter command: Added bellsprout to the Pokedex!
Enter command: Added weepinbell to the Pokedex!
Enter command: Added victreebel to the Pokedex!
Enter command: Added tentacool to the Pokedex!
Enter command: Added tentacruel to the Pokedex!
Enter command: Added geodude to the Pokedex!
Enter command: Added graveler to the Pokedex!
Enter command: Added golem to the Pokedex!
Enter command: Added ponyta to the Pokedex!
Enter command: Added rapidash to the Pokedex!
Enter command: Added slowpoke to the Pokedex!
Enter command: Added slowbro to the Pokedex!
Enter command: Added magnemite to the Pokedex!
Enter command: Added magneton to the Pokedex!
Enter command: Added farfetchd to the Pokedex!
Enter command: Added doduo to the Pokedex!
Enter command: Added dodrio to the Pokedex!
Enter command: Added seel to the Pokedex!
Enter command: Added dewgong to the Pokedex!
Enter command: Added grimer to the Pokedex!
Enter command: Added muk to the Pokedex!
Enter command: Added shellder to the Pokedex!
Enter command: Added cloyster to the Pokedex!
Enter command: Added gastly to the Pokedex!
Enter command: Added haunter to the Pokedex!
Enter command: Added gengar to the Pokedex!
Enter command: Added onix to the Pokedex!
Enter command: Added drowzee to the Pokedex!
Enter command: Added hypno to the Pokedex!
Enter command: Added krabby to the Pokedex!
Enter command: Added kingler to the Pokedex!
Enter command: Added voltorb to the Pokedex!
Enter command: Added electrode to the Pokedex!
Enter command: Added exeggcute to the Pokedex!
Enter command: Added exeggutor to the Pokedex!
Enter command: Added cubone to the Pokedex!
Enter command: Added marowak to the Pokedex!
Enter command: Added hitmonlee to the Pokedex!
Enter command: Added hitmonchan to the Pokedex!
Enter command: Added lickitung to the Pokedex!
Enter command: Added koffing to the Pokedex!
Enter command: Added weezing to the Pokedex!
Enter command: Added rhyhorn to the Pokedex!
Enter command: Added rhydon to the Pokedex!
Enter command: Added chansey to the Pokedex!
Enter command: Added tangela to the Pokedex!
Enter command: Added kangaskhan to the Pokedex!
Enter command: Added horsea to the Pokedex!
Enter command: Added seadra to the Pokedex!
Enter command: Added goldeen to the Pokedex!
Enter command: Added seaking to the Pokedex!
Enter command: Added staryu to the Pokedex!
Enter command: Added starmie to the Pokedex!
Enter command: Added mr-mime to the Pokedex!
Enter command: Added scyther to the Pokedex!
Enter command: Added jynx to the Pokedex!
Enter command: Added electabuzz to the Pokedex!
Enter command: Added magmar to the Pokedex!
Enter command: Added pinsir to the Pokedex!
Enter command: Added tauros to the Pokedex!
Enter command: Added magikarp to the Pokedex!
Enter command: Added gyarados to the Pokedex!
Enter command: Added lapras to the Pokedex!
Enter command: Added ditto to the Pokedex!
Enter command: Added eevee to the Pokedex!
Enter command: Added vaporeon to the Pokedex!
Enter command: Added jolteon to the Pokedex!
Enter command: Added flareon to the Pokedex!
Enter command: Added porygon to the Pokedex!
Enter command: Added omanyte to the Pokedex!
Enter command: Added omastar to the Pokedex!
Enter command: Added kabuto to the Pokedex!
Enter command: Added kabutops to the Pokedex!
Enter command: Added aerodactyl to the Pokedex!
Enter command: Added snorlax to the Pokedex!
Enter command: Added articuno to the Pokedex!
Enter command: Added zapdos to the Pokedex!
Enter command: Added moltres to the Pokedex!
Enter command: Added dratini to the Pokedex!
Enter command: Added dragonair to the Pokedex!
Enter command: Added dragonite to the Pokedex!
Enter command: Added mewtwo to the Pokedex!
Enter command: Added mew to the Pokedex!
Enter command: --> #001: *********
    #002: *******
    #003: ********
    #004: **********
    #005: **********
    #006: *********
    #007: ********
    #008: *********
    #009: *********
    #010: ********
    #011: *******
    #012: **********
    #013: ******
    #014: ******
    #015: ********
    #016: ******
    #017: *********
    #018: *******
    #019: *******
    #020: ********
    #021: *******
    #022: ******
    #023: *****
    #024: *****
    #025: *******
    #026: ******
    #027: *********
    #028: *********
    #029: *********
    #030: ********
    #031: *********
    #032: *********
    #033: ********
    #034: ********
    #035: ********
    #036: ********
    #037: ******
    #038: *********
    #039: **********
    #040: **********
    #041: *****
    #042: ******
    #043: ******
    #044: *****
    #045: *********
    #046: *****
    #047: ********
    #048: *******
    #049: ********
    #050: *******
    #051: *******
    #052: ******
    #053: *******
    #054: *******
    #055: *******
    #056: ******
    #057: ********
    #058: *********
    #059: ********
    #060: *******
    #061: *********
    #062: *********
    #063: ****
    #064: *******
    #065: ********
    #066: ******
    #067: *******
    #068: *******
    #069: **********
    #070: **********
    #071: **********
    #072: *********
    #073: **********
    #074: *******
    #075: ********
    #076: *****
    #077: ******
    #078: ********
    #079: ********
    #080: *******
    #081: *********
    #082: ********
    #083: *********
    #084: *****
    #085: ******
    #086: ****
    #087: *******
    #088: ******
    #089: ***
    #090: ********
    #091: ********
    #092: ******
    #093: *******
    #094: ******
    #095: ****
    #096: *******
    #097: *****
    #098: ******
    #099: *******
    #100: *******
    #101: *********
    #102: *********
    #103: *********
    #104: ******
    #105: *******
    #106: *********
    #107: **********
    #108: *********
    #109: *******
    #110: *******
    #111: *******
    #112: ******
    #113: *******
    #114: *******
    #115: **********
    #116: ******
    #117: ******
    #118: *******
    #119: *******
    #120: ******
    #121: *******
    #122: *******
    #123: *******
    #124: ****
    #125: **********
    #126: ******
    #127: ******
    #128: ******
    #129: ********
    #130: ********
    #131: ******
    #132: *****
    #133: *****
    #134: ********
    #135: *******
    #136: *******
    #137: *******
    #138: *******
    #139: *******
    #140: ******
    #141: ********
    #142: **********
    #143: *******
    #144: ********
    #145: ******
    #146: *******
    #147: *******
    #148: *********
    #149: *********
    #150: ******
    #151: ***
Enter command: Enter command: Enter command: Enter command: Enter command: Enter command: Enter command: Enter command: Enter command: Enter command: Enter command: Switching to explore the Pokedex get_found_pokemon returned
Enter 'q' to return to previous pokedex
Enter command: --> #002: ivysaur
    #010: caterpie
    #011: metapod
    #012: butterfree
    #013: weedle
Enter command: Switching to explore the Pokedex search_pokemon "i" returned
Enter 'q' to return to previous pokedex
Enter command: --> #002: ivysaur
    #010: caterpie
Enter command: Goodbye.
Returning to previous pokedex.
Enter command: --> #002: ivysaur
    #010: caterpie
    #011: metapod
    #012: butterfree
    #013: weedle
Enter command: Enter command: Enter command: Enter command:     #010: caterpie
--> #012: butterfree
    #013: weedle
Enter command: Goodbye.
Returning to previous pokedex.
Enter command:     #001: *********
    #002: ivysaur
    #003: ********
    #004: **********
    #005: **********
    #006: *********
    #007: ********
    #008: *********
    #009: *********
    #010: caterpie
    #011: metapod
    #012: butterfree
--> #013: weedle
    #014: ******
    #015: ********
    #016: ******
    #017: *********
    #018: *******
    #019: *******
    #020: ********
    #021: *******
    #022: ******
    #023: *****
    #024: *****
    #025: *******
    #026: ******
    #027: *********
    #028: *********
    #029: *********
    #030: ********
    #031: *********
    #032: *********
    #033: ********
    #034: ********
    #035: ********
    #036: ********
    #037: ******
    #038: *********
    #039: **********
    #040: **********
    #041: *****
    #042: ******
    #043: ******
    #044: *****
    #045: *********
    #046: *****
    #047: ********
    #048: *******
    #049: ********
    #050: *******
    #051: *******
    #052: ******
    #053: *******
    #054: *******
    #055: *******
    #056: ******
    #057: ********
    #058: *********
    #059: ********
    #060: *******
    #061: *********
    #062: *********
    #063: ****
    #064: *******
    #065: ********
    #066: ******
    #067: *******
    #068: *******
    #069: **********
    #070: **********
    #071: **********
    #072: *********
    #073: **********
    #074: *******
    #075: ********
    #076: *****
    #077: ******
    #078: ********
    #079: ********
    #080: *******
    #081: *********
    #082: ********
    #083: *********
    #084: *****
    #085: ******
    #086: ****
    #087: *******
    #088: ******
    #089: ***
    #090: ********
    #091: ********
    #092: ******
    #093: *******
    #094: ******
    #095: ****
    #096: *******
    #097: *****
    #098: ******
    #099: *******
    #100: *******
    #101: *********
    #102: *********
    #103: *********
    #104: ******
    #105: *******
    #106: *********
    #107: **********
    #108: *********
    #109: *******
    #110: *******
    #111: *******
    #112: ******
    #113: *******
    #114: *******
    #115: **********
    #116: ******
    #117: ******
    #118: *******
    #119: *******
    #120: ******
    #121: *******
    #122: *******
    #123: *******
    #124: ****
    #125: **********
    #126: ******
    #127: ******
    #128: ******
    #129: ********
    #130: ********
    #131: ******
    #132: *****
    #133: *****
    #134: ********
    #135: *******
    #136: *******
    #137: *******
    #138: *******
    #139: *******
    #140: ******
    #141: ********
    #142: **********
    #143: *******
    #144: ********
    #145: ******
    #146: *******
    #147: *******
    #148: *********
    #149: *********
    #150: ******
    #151: ***
Enter command: Goodbye.
